1701sq00,F6F5,334518.84,163144.86
1701sq01,F6F5,334518.84,163144.86
1701sq02,TBM3AVENGER3,334518.84,163144.86
1701sq03,TBM3AVENGER3,334518.84,163144.86
1701sq20,TBM3AVENGER3,334518.84,163144.86
1701sq21,SeaHurricaneMkIIc,334518.84,163144.86
1830sq00,TBM3AVENGER3,335972.47,159814.7
1830sq01,TBM3AVENGER3,335972.47,159814.7
1830sq02,TBM3AVENGER3,335972.47,159814.7
1830sq03,TBM3AVENGER3,335972.47,159814.7
1834sq00,TBM3AVENGER3,334345.42,160636.85
1834sq01,TBM3AVENGER3,334345.42,160636.85
1834sq02,TBM3AVENGER3,334345.42,160636.85
1834sq03,TBM3AVENGER3,334345.42,160636.85
1840sq00,F6F5,333151.53,159863.3
1840sq01,F6F5,333151.53,159863.3
1840sq02,F6F5,333151.53,159863.3
1840sq03,F4UCORSAIR4,333151.53,159863.3
1840sq10,F4UCORSAIR4,333151.53,159863.3
1840sq11,SeaHurricaneMkIIc,333151.53,159863.3
1841sq00,TBM3AVENGER3,335888.3,161012.35
1841sq01,TBM3AVENGER3,335888.3,161012.35
1841sq02,TBM3AVENGER3,335888.3,161012.35
1841sq03,TBM3AVENGER3,335888.3,161012.35
1845sq00,SeaHurricaneMkIIc,337018.84,160544.86
1845sq01,F6F5,337018.84,160544.86
1845sq02,F6F5,337018.84,160544.86
1845sq03,F6F5,337018.84,160544.86
1845sq10,F4UCORSAIR4,337018.84,160544.86
1845sq11,F4UCORSAIR4,337018.84,160544.86
1st Field Heavy Artillery Regiment000,Type88_75mm_JA,214301.27,183683.26
1st Field Heavy Artillery Regiment001,Type88_75mm_JA,215437.22,184494.37
1st Field Heavy Artillery Regiment002,Type88_75mm_JA,217133.92,186310.17
1st Field Heavy Artillery Regiment003,Type88_75mm_JA,216723.24,188519.69
1st Field Heavy Artillery Regiment010,Type88_75mm_JA,214064.99,188682.68
1st Field Heavy Artillery Regiment011,Type88_75mm_JA,212706.46,188719.92
1st Field Heavy Artillery Regiment012,Type88_75mm_JA,211124.94,188180.03
1st Field Heavy Artillery Regiment013,Type88_75mm_JA,209526.86,186681.56
1st Field Heavy Artillery Regiment020,Type88_75mm_JA,212087.26,190548.51
1st Field Heavy Artillery Regiment021,Type88_75mm_JA,211309.67,191685.44
1st Field Heavy Artillery Regiment022,Type88_75mm_JA,209613.04,192504.41
1st Field Heavy Artillery Regiment023,Type88_75mm_JA,207718.57,190614.54
1st Field Heavy Artillery Regiment030,Type88_75mm_JA,207422.81,189723.94
1st Field Heavy Artillery Regiment031,Type88_75mm_JA,208475.65,188421.13
1st Field Heavy Artillery Regiment032,Type88_75mm_JA,210032.13,183506.41
1st Field Heavy Artillery Regiment033,Type88_75mm_JA,210772.39,183348.19
1st Field Heavy Artillery Regiment100,Twin25mm_JA,211866.86,185355.24
1st Field Heavy Artillery Regiment101,Twin25mm_JA,211961.12,186366.09
1st Field Heavy Artillery Regiment102,Twin25mm_JA,213162.15,186706.73
1st Field Heavy Artillery Regiment103,Twin25mm_JA,212501.94,187063.18
1st Field Heavy Artillery Regiment110,Twin25mm_JA,212047.16,187031.57
1st Field Heavy Artillery Regiment111,Twin25mm_JA,211353.67,187100.56
1st Field Heavy Artillery Regiment112,Twin25mm_JA,211353.13,185917.6
1st Field Heavy Artillery Regiment113,Twin25mm_JA,210536.22,188804.59
1st Field Heavy Artillery Regiment120,Twin25mm_JA,210641.8,189564.74
1st Field Heavy Artillery Regiment121,Twin25mm_JA,210136.79,189397.58
1st Field Heavy Artillery Regiment122,Twin25mm_JA,209617.71,189249.77
1st Field Heavy Artillery Regiment123,Twin25mm_JA,209740.88,190096.14
1st Field Heavy Artillery Regiment130,Twin25mm_JA,209081.03,189279.68
1st Field Heavy Artillery Regiment131,Twin25mm_JA,209524.45,188586.4
1st Field Heavy Artillery Regiment132,Twin25mm_JA,208831.07,201598.61
1st Field Heavy Artillery Regiment133,Twin25mm_JA,208190.31,202236.21
1st Field Heavy Artillery Regiment200,Twin25mm_JA,207877.82,203280.1
1st Field Heavy Artillery Regiment201,Type88_75mm_JA,208310.3,201230.1
1st Field Heavy Artillery Regiment202,Type88_75mm_JA,207830.48,201762.74
1st Field Heavy Artillery Regiment203,Type88_75mm_JA,207928.33,202706.52
1st Field Heavy Artillery Regiment210,Type88_75mm_JA,211690.83,203886.69
1st Field Heavy Artillery Regiment211,Twin25mm_JA,211477.88,204028.66
1st Field Heavy Artillery Regiment212,Type98_20mm_JA,209773.66,189591.75
1st Field Heavy Artillery Regiment213,Type98_20mm_JA,210147.83,189130.93
1st Field Heavy Artillery Regiment220,Type98_20mm_JA,212711.14,185965.18
1st Field Heavy Artillery Regiment221,Type98_20mm_JA,212677.16,186426.32
1st Field Heavy Artillery Regiment222,Zenit85mm_1939,225430.25,183877.69
1st Field Heavy Artillery Regiment223,Zenit85mm_1939,219092.25,189054.77
1st Field Heavy Artillery Regiment230,Zenit85mm_1939,205788.74,182230.44
1st Field Heavy Artillery Regiment231,Zenit85mm_1939,211938.48,194373.03
1st Field Heavy Artillery Regiment232,Zenit85mm_1939,210793.25,198891.21
1st Field Heavy Artillery Regiment233,Zenit85mm_1939,199247.43,194764.65
1st Field Heavy Artillery Regiment300,Zenit85mm_1939,103901.23,145146.41
1st Field Heavy Artillery Regiment301,Zenit85mm_1939,99236.47,142031.35
1st Field Heavy Artillery Regiment302,Zenit85mm_1939,94665.64,142234.85
1st Field Heavy Artillery Regiment303,Type88_75mm_JA,97698.33,139265.47
1st Field Heavy Artillery Regiment310,Type88_75mm_JA,97364.31,141308.99
1st Field Heavy Artillery Regiment311,Type88_75mm_JA,96490.74,139945.76
1st Field Heavy Artillery Regiment312,Type88_75mm_JA,102081.29,142671.84
1st Field Heavy Artillery Regiment313,Type88_75mm_JA,103279.27,144383.01
1st Field Heavy Artillery Regiment320,Type88_75mm_JA,104040.13,141368.35
1st Field Heavy Artillery Regiment321,Twin25mm_JA,98096.82,140827.01
1st Field Heavy Artillery Regiment322,Twin25mm_JA,98186.71,140042.52
1st Field Heavy Artillery Regiment323,Twin25mm_JA,98750.56,140786.15
1st Field Heavy Artillery Regiment330,Twin25mm_JA,97050.84,140238.65
1st Field Heavy Artillery Regiment331,Twin25mm_JA,103634.17,142176.82
1st Field Heavy Artillery Regiment332,Twin25mm_JA,103323.3,142577.67
1st Field Heavy Artillery Regiment333,Twin25mm_JA,103601.44,143011.25
209th SEGC000,RadioBeacon,321268.73,263533.57
227th SEGC000,JapanCarsColumnB,210939.92,187249
227th SEGC001,JapanCarsColumnB,212789.7,185164.69
227th SEGC002,JapanCarsColumnB,211082.84,189359.64
227th SEGC003,RadarChainHomeHigh,96112.98,147911.69
227th SEGC010,RadarChainHomeHigh,212162.71,188763.86
271st IIB000,Zenit85mm_1939,291344.29,240266.41
271st IIB001,Zenit85mm_1939,303445.17,240439.28
271st IIB002,Zenit85mm_1939,314854.57,239920.67
271st IIB003,Zenit85mm_1939,327646.92,240266.41
271st IIB010,Zenit85mm_1939,290181.79,253970.58
271st IIB011,Zenit85mm_1939,289764.86,261302.3
271st IIB012,Zenit85mm_1939,330490.67,260122.95
271st IIB013,Zenit85mm_1939,330585.58,251424.99
271st IIB020,Zenit85mm_1939,290134.33,246882.92
820sq00,SEAFIRE3F,335185.9,160241.78
820sq01,SEAFIRE3F,335185.9,160241.78
820sq02,SEAFIRE3F,335185.9,160241.78
820sq03,SEAFIRE3F,335185.9,160241.78
820sq10,SEAFIRE3F,335185.9,160241.78
820sq11,SEAFIRE3F,335185.9,160241.78
820sq12,SEAFIRE3F,335185.9,160241.78
820sq13,SEAFIRE3F,335185.9,160241.78
820sq20,SEAFIRE3F,335185.9,160241.78
820sq21,SEAFIRE3F,335185.9,160241.78
848sq00,F4UCORSAIR2,335888.3,161012.35
848sq01,F4UCORSAIR2,335888.3,161012.35
848sq02,F4UCORSAIR2,335888.3,161012.35
848sq03,F4UCORSAIR4,335888.3,161012.35
848sq10,F4UCORSAIR4,335888.3,161012.35
848sq11,F4UCORSAIR4,335888.3,161012.35
848sq12,F4UCORSAIR4,335888.3,161012.35
848sq13,F4UCORSAIR4,335888.3,161012.35
848sq20,F4UCORSAIR4,335888.3,161012.35
848sq21,SEAFIRE3F,335888.3,161012.35
848sq22,SEAFIRE3F,335888.3,161012.35
848sq23,SEAFIRE3F,335888.3,161012.35
849sq00,F4UCORSAIR2,334345.42,160636.85
849sq01,F4UCORSAIR2,334345.42,160636.85
849sq02,F4UCORSAIR2,334345.42,160636.85
849sq03,F4UCORSAIR4,334345.42,160636.85
849sq10,F4UCORSAIR4,334345.42,160636.85
849sq11,F4UCORSAIR4,334345.42,160636.85
849sq12,F4UCORSAIR4,334345.42,160636.85
849sq13,F4UCORSAIR4,334345.42,160636.85
849sq20,F4UCORSAIR4,334345.42,160636.85
849sq21,SEAFIRE3F,334345.42,160636.85
849sq22,SEAFIRE3F,334345.42,160636.85
849sq23,SEAFIRE3F,334345.42,160636.85
854sq00,F4UCORSAIR4,335972.47,159814.7
854sq01,F4UCORSAIR4,335972.47,159814.7
854sq02,F4UCORSAIR4,335972.47,159814.7
854sq03,F4UCORSAIR2,335972.47,159814.7
854sq10,F4UCORSAIR2,335972.47,159814.7
854sq11,F4UCORSAIR2,335972.47,159814.7
854sq12,F4UCORSAIR2,335972.47,159814.7
854sq13,F4UCORSAIR2,335972.47,159814.7
854sq20,F4UCORSAIR2,335972.47,159814.7
857sq00,F6F5,334414.41,159567.48
857sq01,F6F5,334414.41,159567.48
857sq02,F6F5,334414.41,159567.48
857sq03,F6F5,334414.41,159567.48
857sq10,F6F5,334414.41,159567.48
857sq11,F6F5,334414.41,159567.48
857sq12,F6F5,334414.41,159567.48
857sq13,F6F5,334414.41,159567.48
857sq20,F6F5,334414.41,159567.48
857sq21,SEAFIRE3F,334414.41,159567.48
857sq22,SEAFIRE3F,334414.41,159567.48
857sq23,SEAFIRE3F,334414.41,159567.48
880sq00,TBM3AVENGER3,334414.41,159567.48
880sq01,TBM3AVENGER3,334414.41,159567.48
880sq02,TBM3AVENGER3,334414.41,159567.48
880sq03,TBM3AVENGER3,334414.41,159567.48
885sq00,F4UCORSAIR4,336518.84,157144.86
885sq01,F4UCORSAIR4,336518.84,157144.86
885sq02,F4UCORSAIR4,336518.84,157144.86
885sq03,SEAFIRE3F,336518.84,157144.86
885sq20,SEAFIRE3F,336518.84,157144.86
885sq21,F6F5,336518.84,157144.86
887sq00,TBM3AVENGER3,335185.9,160241.78
887sq01,TBM3AVENGER3,335185.9,160241.78
887sq02,TBM3AVENGER3,335185.9,160241.78
887sq03,TBM3AVENGER3,335185.9,160241.78
894sq00,Fulmar1,335185.9,160241.78
894sq01,Fulmar1,335185.9,160241.78
894sq02,Fulmar1,335185.9,160241.78
IJA_F_C_23z00,A6M5A,3655,156769
IJA_F_C_23z01,KI_84_IB,3655,156769
IJA_F_C_23z02,KI_84_IB,3655,156769
IJA_F_S_105z00,KI_43_IIIKO,3655,156769
IJA_F_S_105z01,KI_43_IIIKO,3655,156769
IJA_F_S_105z02,KI_43_IIIKO,3655,156769
IJA_F_S_105z03,KI_43_IIIKO,3655,156769
IJA_F_S_105z10,KI_43_IIIKO,3655,156769
IJA_F_S_105z11,KI_43_IIIKO,3655,156769
IJA_F_S_105z12,KI_84_IA,3655,156769
IJA_F_S_105z13,A6M5A,3655,156769
IJA_F_S_105z20,A6M5A,3655,156769
IJA_F_S_11z00,B5N2,3655,206769
IJA_F_S_11z01,B5N2,3655,206769
IJA_F_S_11z02,B5N2,3655,206769
IJA_F_S_11z03,KI_67_I,97839.6,140292.95
IJA_F_S_11z10,KI_67_I,103361.56,142290.45
IJA_F_S_11z11,KI_67_I,211761.56,185964.44
IJA_F_S_11z12,KI_45_OTSU,97839.6,140292.95
IJA_F_S_11z13,KI_45_OTSU,103361.56,142290.45
IJA_F_S_11z20,KI_45_OTSU,211761.56,185964.44
IJA_F_S_11z21,H8K1,209097.83,203196.85
IJA_F_S_11z22,H8K1,209097.83,203196.85
IJA_F_S_11z23,H8K1,209097.83,203196.85
IJA_F_S_17z00,A6M5C,3655,156769
IJA_F_S_17z01,A6M5C,3655,156769
IJA_F_S_17z02,A6M5C,3655,156769
IJA_F_S_17z03,A6M5C,3655,156769
IJA_F_S_17z10,A6M5C,3655,156769
IJA_F_S_17z11,A6M5C,3655,156769
IJA_F_S_17z12,KI_84_IA,3655,156769
IJA_F_S_17z13,KI_84_IA,3655,156769
IJA_F_S_17z20,KI_84_IC,3655,156769
IJA_F_S_17z21,KI_84_IC,3655,156769
IJA_F_S_17z22,KI_84_IC,3655,156769
IJA_F_S_19z00,KI_84_IB,3655,156769
IJA_F_S_19z01,KI_84_IB,3655,156769
IJA_F_S_19z02,KI_84_IB,3655,156769
IJA_F_S_19z03,J2M5,209462.09,188987.02
IJA_F_S_19z10,J2M5,211761.56,185964.44
IJA_F_S_19z11,J2M5,97839.6,140292.95
IJA_F_S_19z12,KI_43_IIIKO,209462.09,188987.02
IJA_F_S_19z13,KI_43_IIIKO,209462.09,188987.02
IJA_F_S_19z20,KI_43_IIIKO,211761.56,185964.44
IJA_F_S_19z21,KI_43_IIIKO,211761.56,185964.44
IJA_F_S_19z22,KI_43_IIIKO,97839.6,140292.95
IJA_F_S_19z23,KI_43_IIIKO,97839.6,140292.95
IJA_F_S_200z00,KI_67_I,3655,156769
IJA_F_S_200z01,KI_67_I,3655,156769
IJA_F_S_200z02,KI_67_I,3655,156769
IJA_F_S_200z03,KI_67_I,3655,156769
IJA_F_S_20z00,KI_84_IC,97839.6,140292.95
IJA_F_S_20z01,KI_84_IC,97839.6,140292.95
IJA_F_S_20z02,KI_84_IC,211761.56,185964.44
IJA_F_S_20z03,KI_84_IC,211761.56,185964.44
IJA_F_S_20z10,KI_84_IC,209462.09,188987.02
IJA_F_S_20z11,KI_84_IC,209462.09,188987.02
IJA_F_S_20z12,N1K1JA,97839.6,140292.95
IJA_F_S_20z13,N1K1JA,97839.6,140292.95
IJA_F_S_20z20,N1K1JA,211761.56,185964.44
IJA_F_S_20z21,N1K1JA,211761.56,185964.44
IJA_F_S_20z22,N1K1JA,209462.09,188987.02
IJA_F_S_20z23,N1K1JA,103361.56,142290.45
IJA_F_S_24z00,A6M5B,211761.56,185964.44
IJA_F_S_24z01,A6M5B,211761.56,185964.44
IJA_F_S_24z02,A6M5B,209462.09,188987.02
IJA_F_S_24z03,A6M5B,209462.09,188987.02
IJA_F_S_24z10,A6M5B,103361.56,142290.45
IJA_F_S_24z11,A6M5B,103361.56,142290.45
IJA_F_S_24z12,KI_61_IHEI,211761.56,185964.44
IJA_F_S_24z13,KI_61_IHEI,211761.56,185964.44
IJA_F_S_24z20,KI_61_IHEI,103361.56,142290.45
IJA_F_S_24z21,KI_61_IHEI,209462.09,188987.02
IJA_F_S_24z22,KI_61_IHEI,209462.09,188987.02
IJA_F_S_24z23,KI_61_IHEI,103361.56,142290.45
IJN00,IJNAmatsukazeDD45,208780.98,186003.17
IJN01,IJNAmatsukazeDD45,210055.1,196019.47
IJN02,IJNAmatsukazeDD45,100177.78,140419.96
IJN03,IJNAmatsukazeDD45,101175.75,140658.4
IJN04,MAS501JP,95183.05,139611.81
IJN05,IJNFishJunkA,95092.01,139843.59
IJN06,IJNFishJunkA,95200.4,139589.1
IJN07,IJNFishJunkA,94978.46,140039.48
IJN08,IJNFishJunkA,208541.89,191930.23
IJN09,IJNFishJunkA,208707.35,191980.42
IJN10,IJNFishJunkA,196653.15,195531.13
IJN12,RwySteel,323268.73,265033.57
IJN13,RwySteel,323294.94,265018.39
IJN_AG_634_FS00,KI_45_OTSU,3655,206769
IJN_AG_634_FS01,KI_45_OTSU,3655,206769
IJN_AG_634_FS02,KI_45_OTSU,3655,206769
IJN_AG_634_FS03,KI_45_OTSU,3655,206769
IJN_AG_634_FS10,KI_45_OTSU,3655,206769
IJN_AG_634_FS11,KI_45_OTSU,3655,206769
IJN_AG_634_FS12,A6M2N,209097.83,203196.85
IJN_AG_634_FS13,A6M2N,209097.83,203196.85
IJN_AG_634_FS20,A6M2N,209097.83,203196.85
IJN_AG_634_VB00,G4M1_11,3655,206769
IJN_AG_634_VB01,G4M1_11,3655,206769
IJN_AG_634_VB02,G4M1_11,3655,206769
IJN_AG_634_VB03,KI_67_I,3655,206769
IJN_AG_634_VB10,G4M1_11,3655,206769
IJN_AG_634_VB11,G4M1_11,3655,206769
IJN_AG_634_VB12,KI_67_I,3655,206769
IJN_AG_634_VB13,KI_67_I,3655,206769
IJN_AG_634_VB20,KI_67_I,3655,206769
IJN_AG_634_VB21,KI_67_I,3655,206769
IJN_AG_634_VB22,KI_67_I,3655,206769
IJN_AG_634_VB23,H8K1,209097.83,203196.85
RN00,HMSFiji,337279.01,163106.58
RN01,HMSKingGeorgeVBB,337093.18,162100.99
RN02,HMSJavelin,335551.65,161987.05
RN03,HMSFiji,334381.36,164002.71
RN04,HMSJavelin,333109.41,162627.92
RN05,HMSJavelin,338396.52,160797.18
RN06,Carrier1,337018.84,160544.86
RN07,HMSFormidableCV,335888.3,161012.35
RN08,HMSIllustriousCV,335972.47,159814.7
RN09,HMSIndomitableCV,334414.41,159567.48
RN10,HMSIndomitableCV,335185.9,160241.78
RN11,HMSIllustriousCV,334345.42,160636.85
RN12,Carrier1,333151.53,159863.3
RN13,HMSJavelin,332877.86,161068.82
RN14,HMSJavelin,337682.35,158051.01
RN15,HMSJavelin,338206.86,159433.87
RN16,HMSFiji,336324.44,158668.12
RN17,HMSFiji,334565.34,158116.19
RN18,HMSKingGeorgeVBB,333011.82,158319.62
RN19,HMSJavelin,331418.89,158732.73
RN20,HMSJavelin,335765.92,156081.17
RN21,HMSFiji,333300.5,157386.02
RN22,Carrier1,334518.84,163144.86
RN23,Carrier1,336518.84,157144.86
RN24,Tanker2,358866.31,160063.72
RN25,Tanker2,358418.66,161522.17
RN26,Transport2,356461.59,161559.57
RN27,Transport2,357832.79,159041.55
1701sq00,F6F5,334518.84,163144.86
1701sq01,F6F5,334518.84,163144.86
1701sq02,TBM3AVENGER3,334518.84,163144.86
1701sq03,TBM3AVENGER3,334518.84,163144.86
1701sq20,TBM3AVENGER3,334518.84,163144.86
1701sq21,SeaHurricaneMkIIc,334518.84,163144.86
1830sq00,TBM3AVENGER3,335972.47,159814.7
1830sq01,TBM3AVENGER3,335972.47,159814.7
1830sq02,TBM3AVENGER3,335972.47,159814.7
1830sq03,TBM3AVENGER3,335972.47,159814.7
1834sq00,TBM3AVENGER3,334345.42,160636.85
1834sq01,TBM3AVENGER3,334345.42,160636.85
1834sq02,TBM3AVENGER3,334345.42,160636.85
1834sq03,TBM3AVENGER3,334345.42,160636.85
1840sq00,F6F5,333151.53,159863.3
1840sq01,F6F5,333151.53,159863.3
1840sq02,F6F5,333151.53,159863.3
1840sq03,F4UCORSAIR4,333151.53,159863.3
1840sq10,F4UCORSAIR4,333151.53,159863.3
1840sq11,SeaHurricaneMkIIc,333151.53,159863.3
1841sq00,TBM3AVENGER3,335888.3,161012.35
1841sq01,TBM3AVENGER3,335888.3,161012.35
1841sq02,TBM3AVENGER3,335888.3,161012.35
1841sq03,TBM3AVENGER3,335888.3,161012.35
1845sq00,SeaHurricaneMkIIc,337018.84,160544.86
1845sq01,F6F5,337018.84,160544.86
1845sq02,F6F5,337018.84,160544.86
1845sq03,F6F5,337018.84,160544.86
1845sq10,F4UCORSAIR4,337018.84,160544.86
1845sq11,F4UCORSAIR4,337018.84,160544.86
1st Field Heavy Artillery Regiment000,Type88_75mm_JA,214301.27,183683.26
1st Field Heavy Artillery Regiment001,Type88_75mm_JA,215437.22,184494.37
1st Field Heavy Artillery Regiment002,Type88_75mm_JA,217133.92,186310.17
1st Field Heavy Artillery Regiment003,Type88_75mm_JA,216723.24,188519.69
1st Field Heavy Artillery Regiment010,Type88_75mm_JA,214064.99,188682.68
1st Field Heavy Artillery Regiment011,Type88_75mm_JA,212706.46,188719.92
1st Field Heavy Artillery Regiment012,Type88_75mm_JA,211124.94,188180.03
1st Field Heavy Artillery Regiment013,Type88_75mm_JA,209526.86,186681.56
1st Field Heavy Artillery Regiment020,Type88_75mm_JA,212087.26,190548.51
1st Field Heavy Artillery Regiment021,Type88_75mm_JA,211309.67,191685.44
1st Field Heavy Artillery Regiment022,Type88_75mm_JA,209613.04,192504.41
1st Field Heavy Artillery Regiment023,Type88_75mm_JA,207718.57,190614.54
1st Field Heavy Artillery Regiment030,Type88_75mm_JA,207422.81,189723.94
1st Field Heavy Artillery Regiment031,Type88_75mm_JA,208475.65,188421.13
1st Field Heavy Artillery Regiment032,Type88_75mm_JA,210032.13,183506.41
1st Field Heavy Artillery Regiment033,Type88_75mm_JA,210772.39,183348.19
1st Field Heavy Artillery Regiment100,Twin25mm_JA,211866.86,185355.24
1st Field Heavy Artillery Regiment101,Twin25mm_JA,211961.12,186366.09
1st Field Heavy Artillery Regiment102,Twin25mm_JA,213162.15,186706.73
1st Field Heavy Artillery Regiment103,Twin25mm_JA,212501.94,187063.18
1st Field Heavy Artillery Regiment110,Twin25mm_JA,212047.16,187031.57
1st Field Heavy Artillery Regiment111,Twin25mm_JA,211353.67,187100.56
1st Field Heavy Artillery Regiment112,Twin25mm_JA,211353.13,185917.6
1st Field Heavy Artillery Regiment113,Twin25mm_JA,210536.22,188804.59
1st Field Heavy Artillery Regiment120,Twin25mm_JA,210641.8,189564.74
1st Field Heavy Artillery Regiment121,Twin25mm_JA,210136.79,189397.58
1st Field Heavy Artillery Regiment122,Twin25mm_JA,209617.71,189249.77
1st Field Heavy Artillery Regiment123,Twin25mm_JA,209740.88,190096.14
1st Field Heavy Artillery Regiment130,Twin25mm_JA,209081.03,189279.68
1st Field Heavy Artillery Regiment131,Twin25mm_JA,209524.45,188586.4
1st Field Heavy Artillery Regiment132,Twin25mm_JA,208831.07,201598.61
1st Field Heavy Artillery Regiment133,Twin25mm_JA,208190.31,202236.21
1st Field Heavy Artillery Regiment200,Twin25mm_JA,207877.82,203280.1
1st Field Heavy Artillery Regiment201,Type88_75mm_JA,208310.3,201230.1
1st Field Heavy Artillery Regiment202,Type88_75mm_JA,207830.48,201762.74
1st Field Heavy Artillery Regiment203,Type88_75mm_JA,207928.33,202706.52
1st Field Heavy Artillery Regiment210,Type88_75mm_JA,211690.83,203886.69
1st Field Heavy Artillery Regiment211,Twin25mm_JA,211477.88,204028.66
1st Field Heavy Artillery Regiment212,Type98_20mm_JA,209773.66,189591.75
1st Field Heavy Artillery Regiment213,Type98_20mm_JA,210147.83,189130.93
1st Field Heavy Artillery Regiment220,Type98_20mm_JA,212711.14,185965.18
1st Field Heavy Artillery Regiment221,Type98_20mm_JA,212677.16,186426.32
1st Field Heavy Artillery Regiment222,Zenit85mm_1939,225430.25,183877.69
1st Field Heavy Artillery Regiment223,Zenit85mm_1939,219092.25,189054.77
1st Field Heavy Artillery Regiment230,Zenit85mm_1939,205788.74,182230.44
1st Field Heavy Artillery Regiment231,Zenit85mm_1939,211938.48,194373.03
1st Field Heavy Artillery Regiment232,Zenit85mm_1939,210793.25,198891.21
1st Field Heavy Artillery Regiment233,Zenit85mm_1939,199247.43,194764.65
1st Field Heavy Artillery Regiment300,Zenit85mm_1939,103901.23,145146.41
1st Field Heavy Artillery Regiment301,Zenit85mm_1939,99236.47,142031.35
1st Field Heavy Artillery Regiment302,Zenit85mm_1939,94665.64,142234.85
1st Field Heavy Artillery Regiment303,Type88_75mm_JA,97698.33,139265.47
1st Field Heavy Artillery Regiment310,Type88_75mm_JA,97364.31,141308.99
1st Field Heavy Artillery Regiment311,Type88_75mm_JA,96490.74,139945.76
1st Field Heavy Artillery Regiment312,Type88_75mm_JA,102081.29,142671.84
1st Field Heavy Artillery Regiment313,Type88_75mm_JA,103279.27,144383.01
1st Field Heavy Artillery Regiment320,Type88_75mm_JA,104040.13,141368.35
1st Field Heavy Artillery Regiment321,Twin25mm_JA,98096.82,140827.01
1st Field Heavy Artillery Regiment322,Twin25mm_JA,98186.71,140042.52
1st Field Heavy Artillery Regiment323,Twin25mm_JA,98750.56,140786.15
1st Field Heavy Artillery Regiment330,Twin25mm_JA,97050.84,140238.65
1st Field Heavy Artillery Regiment331,Twin25mm_JA,103634.17,142176.82
1st Field Heavy Artillery Regiment332,Twin25mm_JA,103323.3,142577.67
1st Field Heavy Artillery Regiment333,Twin25mm_JA,103601.44,143011.25
209th SEGC000,RadioBeacon,321268.73,263533.57
227th SEGC000,JapanCarsColumnB,210939.92,187249
227th SEGC001,JapanCarsColumnB,212789.7,185164.69
227th SEGC002,JapanCarsColumnB,211082.84,189359.64
227th SEGC003,RadarChainHomeHigh,96112.98,147911.69
227th SEGC010,RadarChainHomeHigh,212162.71,188763.86
271st IIB000,Zenit85mm_1939,291344.29,240266.41
271st IIB001,Zenit85mm_1939,303445.17,240439.28
271st IIB002,Zenit85mm_1939,314854.57,239920.67
271st IIB003,Zenit85mm_1939,327646.92,240266.41
271st IIB010,Zenit85mm_1939,290181.79,253970.58
271st IIB011,Zenit85mm_1939,289764.86,261302.3
271st IIB012,Zenit85mm_1939,330490.67,260122.95
271st IIB013,Zenit85mm_1939,330585.58,251424.99
271st IIB020,Zenit85mm_1939,290134.33,246882.92
820sq00,SEAFIRE3F,335185.9,160241.78
820sq01,SEAFIRE3F,335185.9,160241.78
820sq02,SEAFIRE3F,335185.9,160241.78
820sq03,SEAFIRE3F,335185.9,160241.78
820sq10,SEAFIRE3F,335185.9,160241.78
820sq11,SEAFIRE3F,335185.9,160241.78
820sq12,SEAFIRE3F,335185.9,160241.78
820sq13,SEAFIRE3F,335185.9,160241.78
820sq20,SEAFIRE3F,335185.9,160241.78
820sq21,SEAFIRE3F,335185.9,160241.78
848sq00,F4UCORSAIR2,335888.3,161012.35
848sq01,F4UCORSAIR2,335888.3,161012.35
848sq02,F4UCORSAIR2,335888.3,161012.35
848sq03,F4UCORSAIR4,335888.3,161012.35
848sq10,F4UCORSAIR4,335888.3,161012.35
848sq11,F4UCORSAIR4,335888.3,161012.35
848sq12,F4UCORSAIR4,335888.3,161012.35
848sq13,F4UCORSAIR4,335888.3,161012.35
848sq20,F4UCORSAIR4,335888.3,161012.35
848sq21,SEAFIRE3F,335888.3,161012.35
848sq22,SEAFIRE3F,335888.3,161012.35
848sq23,SEAFIRE3F,335888.3,161012.35
849sq00,F4UCORSAIR2,334345.42,160636.85
849sq01,F4UCORSAIR2,334345.42,160636.85
849sq02,F4UCORSAIR2,334345.42,160636.85
849sq03,F4UCORSAIR4,334345.42,160636.85
849sq10,F4UCORSAIR4,334345.42,160636.85
849sq11,F4UCORSAIR4,334345.42,160636.85
849sq12,F4UCORSAIR4,334345.42,160636.85
849sq13,F4UCORSAIR4,334345.42,160636.85
849sq20,F4UCORSAIR4,334345.42,160636.85
849sq21,SEAFIRE3F,334345.42,160636.85
849sq22,SEAFIRE3F,334345.42,160636.85
849sq23,SEAFIRE3F,334345.42,160636.85
854sq00,F4UCORSAIR4,335972.47,159814.7
854sq01,F4UCORSAIR4,335972.47,159814.7
854sq02,F4UCORSAIR4,335972.47,159814.7
854sq03,F4UCORSAIR2,335972.47,159814.7
854sq10,F4UCORSAIR2,335972.47,159814.7
854sq11,F4UCORSAIR2,335972.47,159814.7
854sq12,F4UCORSAIR2,335972.47,159814.7
854sq13,F4UCORSAIR2,335972.47,159814.7
854sq20,F4UCORSAIR2,335972.47,159814.7
857sq00,F6F5,334414.41,159567.48
857sq01,F6F5,334414.41,159567.48
857sq02,F6F5,334414.41,159567.48
857sq03,F6F5,334414.41,159567.48
857sq10,F6F5,334414.41,159567.48
857sq11,F6F5,334414.41,159567.48
857sq12,F6F5,334414.41,159567.48
857sq13,F6F5,334414.41,159567.48
857sq20,F6F5,334414.41,159567.48
857sq21,SEAFIRE3F,334414.41,159567.48
857sq22,SEAFIRE3F,334414.41,159567.48
857sq23,SEAFIRE3F,334414.41,159567.48
880sq00,TBM3AVENGER3,334414.41,159567.48
880sq01,TBM3AVENGER3,334414.41,159567.48
880sq02,TBM3AVENGER3,334414.41,159567.48
880sq03,TBM3AVENGER3,334414.41,159567.48
885sq00,F4UCORSAIR4,336518.84,157144.86
885sq01,F4UCORSAIR4,336518.84,157144.86
885sq02,F4UCORSAIR4,336518.84,157144.86
885sq03,SEAFIRE3F,336518.84,157144.86
885sq20,SEAFIRE3F,336518.84,157144.86
885sq21,F6F5,336518.84,157144.86
887sq00,TBM3AVENGER3,335185.9,160241.78
887sq01,TBM3AVENGER3,335185.9,160241.78
887sq02,TBM3AVENGER3,335185.9,160241.78
887sq03,TBM3AVENGER3,335185.9,160241.78
894sq00,Fulmar1,335185.9,160241.78
894sq01,Fulmar1,335185.9,160241.78
894sq02,Fulmar1,335185.9,160241.78
IJA_F_C_23z00,A6M5A,3655,156769
IJA_F_C_23z01,KI_84_IB,3655,156769
IJA_F_C_23z02,KI_84_IB,3655,156769
IJA_F_S_105z00,KI_43_IIIKO,3655,156769
IJA_F_S_105z01,KI_43_IIIKO,3655,156769
IJA_F_S_105z02,KI_43_IIIKO,3655,156769
IJA_F_S_105z03,KI_43_IIIKO,3655,156769
IJA_F_S_105z10,KI_43_IIIKO,3655,156769
IJA_F_S_105z11,KI_43_IIIKO,3655,156769
IJA_F_S_105z12,KI_84_IA,3655,156769
IJA_F_S_105z13,A6M5A,3655,156769
IJA_F_S_105z20,A6M5A,3655,156769
IJA_F_S_11z00,B5N2,3655,206769
IJA_F_S_11z01,B5N2,3655,206769
IJA_F_S_11z02,B5N2,3655,206769
IJA_F_S_11z03,KI_67_I,97839.6,140292.95
IJA_F_S_11z10,KI_67_I,103361.56,142290.45
IJA_F_S_11z11,KI_67_I,211761.56,185964.44
IJA_F_S_11z12,KI_45_OTSU,97839.6,140292.95
IJA_F_S_11z13,KI_45_OTSU,103361.56,142290.45
IJA_F_S_11z20,KI_45_OTSU,211761.56,185964.44
IJA_F_S_11z21,H8K1,209097.83,203196.85
IJA_F_S_11z22,H8K1,209097.83,203196.85
IJA_F_S_11z23,H8K1,209097.83,203196.85
IJA_F_S_17z00,A6M5C,3655,156769
IJA_F_S_17z01,A6M5C,3655,156769
IJA_F_S_17z02,A6M5C,3655,156769
IJA_F_S_17z03,A6M5C,3655,156769
IJA_F_S_17z10,A6M5C,3655,156769
IJA_F_S_17z11,A6M5C,3655,156769
IJA_F_S_17z12,KI_84_IA,3655,156769
IJA_F_S_17z13,KI_84_IA,3655,156769
IJA_F_S_17z20,KI_84_IC,3655,156769
IJA_F_S_17z21,KI_84_IC,3655,156769
IJA_F_S_17z22,KI_84_IC,3655,156769
IJA_F_S_19z00,KI_84_IB,3655,156769
IJA_F_S_19z01,KI_84_IB,3655,156769
IJA_F_S_19z02,KI_84_IB,3655,156769
IJA_F_S_19z03,J2M5,209462.09,188987.02
IJA_F_S_19z10,J2M5,211761.56,185964.44
IJA_F_S_19z11,J2M5,97839.6,140292.95
IJA_F_S_19z12,KI_43_IIIKO,209462.09,188987.02
IJA_F_S_19z13,KI_43_IIIKO,209462.09,188987.02
IJA_F_S_19z20,KI_43_IIIKO,211761.56,185964.44
IJA_F_S_19z21,KI_43_IIIKO,211761.56,185964.44
IJA_F_S_19z22,KI_43_IIIKO,97839.6,140292.95
IJA_F_S_19z23,KI_43_IIIKO,97839.6,140292.95
IJA_F_S_200z00,KI_67_I,3655,156769
IJA_F_S_200z01,KI_67_I,3655,156769
IJA_F_S_200z02,KI_67_I,3655,156769
IJA_F_S_200z03,KI_67_I,3655,156769
IJA_F_S_20z00,KI_84_IC,97839.6,140292.95
IJA_F_S_20z01,KI_84_IC,97839.6,140292.95
IJA_F_S_20z02,KI_84_IC,211761.56,185964.44
IJA_F_S_20z03,KI_84_IC,211761.56,185964.44
IJA_F_S_20z10,KI_84_IC,209462.09,188987.02
IJA_F_S_20z11,KI_84_IC,209462.09,188987.02
IJA_F_S_20z12,N1K1JA,97839.6,140292.95
IJA_F_S_20z13,N1K1JA,97839.6,140292.95
IJA_F_S_20z20,N1K1JA,211761.56,185964.44
IJA_F_S_20z21,N1K1JA,211761.56,185964.44
IJA_F_S_20z22,N1K1JA,209462.09,188987.02
IJA_F_S_20z23,N1K1JA,103361.56,142290.45
IJA_F_S_24z00,A6M5B,211761.56,185964.44
IJA_F_S_24z01,A6M5B,211761.56,185964.44
IJA_F_S_24z02,A6M5B,209462.09,188987.02
IJA_F_S_24z03,A6M5B,209462.09,188987.02
IJA_F_S_24z10,A6M5B,103361.56,142290.45
IJA_F_S_24z11,A6M5B,103361.56,142290.45
IJA_F_S_24z12,KI_61_IHEI,211761.56,185964.44
IJA_F_S_24z13,KI_61_IHEI,211761.56,185964.44
IJA_F_S_24z20,KI_61_IHEI,103361.56,142290.45
IJA_F_S_24z21,KI_61_IHEI,209462.09,188987.02
IJA_F_S_24z22,KI_61_IHEI,209462.09,188987.02
IJA_F_S_24z23,KI_61_IHEI,103361.56,142290.45
IJN00,IJNAmatsukazeDD45,208780.98,186003.17
IJN01,IJNAmatsukazeDD45,210055.1,196019.47
IJN02,IJNAmatsukazeDD45,100177.78,140419.96
IJN03,IJNAmatsukazeDD45,101175.75,140658.4
IJN04,MAS501JP,95183.05,139611.81
IJN05,IJNFishJunkA,95092.01,139843.59
IJN06,IJNFishJunkA,95200.4,139589.1
IJN07,IJNFishJunkA,94978.46,140039.48
IJN08,IJNFishJunkA,208541.89,191930.23
IJN09,IJNFishJunkA,208707.35,191980.42
IJN10,IJNFishJunkA,196653.15,195531.13
IJN12,RwySteel,323268.73,265033.57
IJN13,RwySteel,323294.94,265018.39
IJN_AG_634_FS00,KI_45_OTSU,3655,206769
IJN_AG_634_FS01,KI_45_OTSU,3655,206769
IJN_AG_634_FS02,KI_45_OTSU,3655,206769
IJN_AG_634_FS03,KI_45_OTSU,3655,206769
IJN_AG_634_FS10,KI_45_OTSU,3655,206769
IJN_AG_634_FS11,KI_45_OTSU,3655,206769
IJN_AG_634_FS12,A6M2N,209097.83,203196.85
IJN_AG_634_FS13,A6M2N,209097.83,203196.85
IJN_AG_634_FS20,A6M2N,209097.83,203196.85
IJN_AG_634_VB00,G4M1_11,3655,206769
IJN_AG_634_VB01,G4M1_11,3655,206769
IJN_AG_634_VB02,G4M1_11,3655,206769
IJN_AG_634_VB03,KI_67_I,3655,206769
IJN_AG_634_VB10,G4M1_11,3655,206769
IJN_AG_634_VB11,G4M1_11,3655,206769
IJN_AG_634_VB12,KI_67_I,3655,206769
IJN_AG_634_VB13,KI_67_I,3655,206769
IJN_AG_634_VB20,KI_67_I,3655,206769
IJN_AG_634_VB21,KI_67_I,3655,206769
IJN_AG_634_VB22,KI_67_I,3655,206769
IJN_AG_634_VB23,H8K1,209097.83,203196.85
RN00,HMSFiji,337279.01,163106.58
RN01,HMSKingGeorgeVBB,337093.18,162100.99
RN02,HMSJavelin,335551.65,161987.05
RN03,HMSFiji,334381.36,164002.71
RN04,HMSJavelin,333109.41,162627.92
RN05,HMSJavelin,338396.52,160797.18
RN06,Carrier1,337018.84,160544.86
RN07,HMSFormidableCV,335888.3,161012.35
RN08,HMSIllustriousCV,335972.47,159814.7
RN09,HMSIndomitableCV,334414.41,159567.48
RN10,HMSIndomitableCV,335185.9,160241.78
RN11,HMSIllustriousCV,334345.42,160636.85
RN12,Carrier1,333151.53,159863.3
RN13,HMSJavelin,332877.86,161068.82
RN14,HMSJavelin,337682.35,158051.01
RN15,HMSJavelin,338206.86,159433.87
RN16,HMSFiji,336324.44,158668.12
RN17,HMSFiji,334565.34,158116.19
RN18,HMSKingGeorgeVBB,333011.82,158319.62
RN19,HMSJavelin,331418.89,158732.73
RN20,HMSJavelin,335765.92,156081.17
RN21,HMSFiji,333300.5,157386.02
RN22,Carrier1,334518.84,163144.86
RN23,Carrier1,336518.84,157144.86
RN24,Tanker2,358866.31,160063.72
RN25,Tanker2,358418.66,161522.17
RN26,Transport2,356461.59,161559.57
RN27,Transport2,357832.79,159041.55
